<?xml version="1.0" encoding="utf-8"?>
<!-- Generator: Adobe Illustrator 17.0.0, SVG Export Plug-In . SVG Version: 6.00 Build 0)  -->
<!DOCTYPE svg PUBLIC "-//W3C//DTD SVG 1.1//EN" "http://www.w3.org/Graphics/SVG/1.1/DTD/svg11.dtd">
<svg version="1.1" id="Layer_1" xmlns="http://www.w3.org/2000/svg" xmlns:xlink="http://www.w3.org/1999/xlink" x="0px" y="0px"
	 width="112px" height="112px" viewBox="0 0 112 112" enable-background="new 0 0 112 112" xml:space="preserve">
<circle opacity="0.8" fill="#FFFFFF" cx="55.634" cy="55.413" r="7.243"/>
<defs>
	<filter id="Adobe_OpacityMaskFilter" filterUnits="userSpaceOnUse" x="-0.366" y="-0.955" width="112" height="112">
		
			<feColorMatrix  type="matrix" values="-1 0 0 0 1  0 -1 0 0 1  0 0 -1 0 1  0 0 0 1 0" color-interpolation-filters="sRGB" result="source"/>
		<feFlood  style="flood-color:white;flood-opacity:1" result="back"/>
		<feBlend  in="source" in2="back" mode="normal"/>
	</filter>
</defs>
<mask maskUnits="userSpaceOnUse" x="-0.366" y="-0.955" width="112" height="112" id="SVGID_1_">
	<g filter="url(#Adobe_OpacityMaskFilter)">
		<circle fill="#FFFFFF" cx="55.634" cy="55.413" r="7.243"/>
	</g>
</mask>
<g mask="url(#SVGID_1_)">
	<g>
		<g>
			<path opacity="0.75" fill="#FFFFFF" d="M-0.366,55.045c0,0,0.438-0.038,1.258-0.108c0.82-0.064,2.023-0.188,3.555-0.288
				c3.063-0.223,7.438-0.512,12.688-0.747c2.625-0.124,5.469-0.259,8.477-0.344c3.008-0.097,6.18-0.221,9.461-0.269
				c3.281-0.052,6.672-0.164,10.117-0.173c3.445-0.023,6.945-0.046,10.445-0.07c3.5,0.023,7,0.045,10.445,0.068
				c3.445,0.001,6.836,0.119,10.117,0.17c3.281,0.049,6.453,0.168,9.461,0.268c3.008,0.086,5.852,0.218,8.477,0.345
				c5.25,0.235,9.625,0.527,12.688,0.75c3.063,0.223,4.813,0.398,4.813,0.398s-1.75,0.175-4.813,0.398
				c-3.063,0.224-7.438,0.515-12.688,0.75c-2.625,0.127-5.469,0.258-8.477,0.345c-3.008,0.1-6.18,0.219-9.461,0.268
				c-3.281,0.051-6.672,0.169-10.117,0.17c-3.445,0.022-6.945,0.045-10.445,0.068c-3.5-0.023-7-0.047-10.445-0.07
				c-3.445-0.008-6.836-0.12-10.117-0.173c-3.281-0.048-6.453-0.172-9.461-0.269c-3.008-0.085-5.852-0.22-8.477-0.344
				c-5.25-0.235-9.625-0.525-12.688-0.747c-1.531-0.1-2.734-0.223-3.555-0.288C0.071,55.082-0.366,55.045-0.366,55.045z"/>
		</g>
		<g>
			<path opacity="0.8" fill="#FFFFFF" d="M55.634-0.955c0,0,0.038,0.438,0.108,1.258c0.064,0.82,0.188,2.023,0.288,3.555
				c0.223,3.063,0.512,7.438,0.748,12.688c0.124,2.625,0.259,5.469,0.344,8.477c0.097,3.008,0.221,6.18,0.269,9.461
				c0.052,3.281,0.164,6.672,0.173,10.117c0.023,3.445,0.046,6.945,0.07,10.445c-0.023,3.5-0.045,7-0.068,10.445
				c-0.001,3.445-0.119,6.836-0.17,10.117c-0.049,3.281-0.168,6.453-0.268,9.461c-0.086,3.008-0.218,5.852-0.345,8.477
				c-0.235,5.25-0.526,9.625-0.75,12.688c-0.223,3.063-0.398,4.813-0.398,4.813s-0.175-1.75-0.398-4.813
				c-0.224-3.063-0.515-7.438-0.75-12.688c-0.127-2.625-0.258-5.469-0.345-8.477c-0.1-3.008-0.219-6.18-0.268-9.461
				c-0.051-3.281-0.169-6.672-0.17-10.117c-0.022-3.445-0.045-6.945-0.068-10.445c0.023-3.5,0.047-7,0.07-10.445
				c0.008-3.445,0.12-6.836,0.173-10.117c0.048-3.281,0.172-6.453,0.269-9.461c0.085-3.008,0.22-5.852,0.344-8.477
				c0.235-5.25,0.525-9.625,0.747-12.688c0.1-1.531,0.223-2.734,0.288-3.555C55.596-0.518,55.634-0.955,55.634-0.955z"/>
		</g>
	</g>
	<defs>
		<filter id="Adobe_OpacityMaskFilter_1_" filterUnits="userSpaceOnUse" x="22.633" y="22.167" width="66.002" height="66.002">
			<feFlood  style="flood-color:white;flood-opacity:1" result="back"/>
			<feBlend  in="SourceGraphic" in2="back" mode="normal"/>
		</filter>
	</defs>
	<mask maskUnits="userSpaceOnUse" x="22.633" y="22.167" width="66.002" height="66.002" id="SVGID_1_">
	</mask>
	<g>
		<g>
			<path opacity="0.75" fill="#FFFFFF" d="M22.633,22.171c0,0,1.154,0.909,3.116,2.556c1.962,1.647,4.745,4.02,8.005,6.947
				c1.635,1.459,3.406,3.039,5.239,4.751c1.841,1.703,3.798,3.485,5.766,5.384c1.971,1.896,4.048,3.815,6.084,5.839
				c2.047,2.014,4.126,4.06,6.205,6.105c2.047,2.078,4.093,4.157,6.108,6.202c2.03,2.031,3.944,4.112,5.842,6.081
				c1.899,1.968,3.684,3.921,5.386,5.764c1.711,1.833,3.294,3.602,4.752,5.238c2.928,3.26,5.3,6.044,6.946,8.006
				c1.647,1.962,2.555,3.117,2.555,3.117s-1.155-0.908-3.117-2.554c-1.963-1.646-4.747-4.018-8.007-6.945
				c-1.637-1.457-3.405-3.04-5.239-4.751c-1.844-1.701-3.797-3.486-5.765-5.385c-1.97-1.897-4.051-3.812-6.082-5.841
				c-2.046-2.014-4.125-4.061-6.203-6.107c-2.046-2.079-4.092-4.158-6.106-6.204c-2.025-2.036-3.943-4.113-5.84-6.083
				c-1.9-1.967-3.681-3.924-5.385-5.765c-1.712-1.833-3.293-3.603-4.752-5.238c-2.927-3.26-5.301-6.042-6.948-8.004
				C23.541,23.325,22.633,22.171,22.633,22.171z"/>
		</g>
		<g>
			<path opacity="0.8" fill="#FFFFFF" d="M88.63,22.167c0,0-0.909,1.154-2.556,3.116c-1.647,1.962-4.02,4.745-6.947,8.005
				c-1.459,1.635-3.039,3.406-4.751,5.239c-1.703,1.841-3.485,3.798-5.384,5.766c-1.896,1.971-3.815,4.048-5.839,6.084
				c-2.014,2.047-4.06,4.126-6.105,6.205c-2.078,2.047-4.157,4.093-6.202,6.108c-2.031,2.03-4.112,3.944-6.081,5.842
				c-1.968,1.899-3.921,3.684-5.764,5.386c-1.833,1.712-3.602,3.294-5.238,4.752c-3.26,2.928-6.044,5.3-8.006,6.946
				c-1.962,1.647-3.117,2.555-3.117,2.555s0.908-1.155,2.554-3.117c1.646-1.963,4.018-4.747,6.945-8.007
				c1.457-1.637,3.04-3.405,4.751-5.239c1.701-1.844,3.486-3.797,5.385-5.765c1.897-1.97,3.812-4.051,5.841-6.082
				c2.014-2.046,4.061-4.125,6.107-6.203c2.079-2.046,4.158-4.092,6.204-6.106c2.036-2.025,4.113-3.943,6.083-5.84
				c1.967-1.9,3.924-3.681,5.765-5.385c1.833-1.712,3.603-3.293,5.238-4.752c3.26-2.927,6.042-5.301,8.004-6.948
				C87.476,23.075,88.63,22.167,88.63,22.167z"/>
		</g>
	</g>
</g>
</svg>
